{
    "asset" : {
        "generator" : "Khronos glTF Blender I/O v1.1.46",
        "version" : "2.0"
    },
    "extensionsUsed" : [
        "KHR_lights_punctual"
    ],
    "extensionsRequired" : [
        "KHR_lights_punctual"
    ],
    "extensions" : {
        "KHR_lights_punctual" : {
            "lights" : [
                {
                    "color" : [
                        1,
                        1,
                        1
                    ],
                    "intensity" : 5,
                    "type" : "point",
                    "name" : "Point"
                },
                {
                    "color" : [
                        1,
                        1,
                        1
                    ],
                    "intensity" : 3,
                    "type" : "point",
                    "name" : "Point.001"
                },
                {
                    "color" : [
                        1,
                        1,
                        1
                    ],
                    "intensity" : 3,
                    "type" : "point",
                    "name" : "Point.002"
                },
                {
                    "color" : [
                        1,
                        1,
                        1
                    ],
                    "intensity" : 3,
                    "type" : "point",
                    "name" : "Point.003"
                }
            ]
        }
    },
    "scene" : 0,
    "scenes" : [
        {
            "name" : "Scene",
            "nodes" : [
                0,
                1,
                2,
                3,
                5,
                7,
                8,
                9,
                10,
                12,
                14
            ]
        }
    ],
    "nodes" : [
        {
            "mesh" : 0,
            "name" : "Cube",
            "scale" : [
                10,
                10,
                10
            ]
        },
        {
            "mesh" : 1,
            "name" : "Cube.001",
            "translation" : [
                -4.866585731506348,
                11,
                5.323849201202393
            ]
        },
        {
            "mesh" : 2,
            "name" : "portal_01_a",
            "scale" : [
                0.8999999761581421,
                0.949999988079071,
                1
            ],
            "translation" : [
                -4.866585731506348,
                10.949999809265137,
                5.313849449157715
            ]
        },
        {
            "mesh" : 3,
            "name" : "portal_01_b",
            "scale" : [
                6.4210309982299805,
                6.777754783630371,
                7.13447904586792
            ],
            "translation" : [
                0,
                0.008342742919921875,
                0.370392382144928
            ]
        },
        {
            "extensions" : {
                "KHR_lights_punctual" : {
                    "light" : 0
                }
            },
            "name" : "Point_Orientation",
            "rotation" : [
                -0.7071067690849304,
                0,
                0,
                0.7071067690849304
            ]
        },
        {
            "children" : [
                4
            ],
            "name" : "Point",
            "translation" : [
                0.006367221474647522,
                0.41184094548225403,
                -5.28582763671875
            ]
        },
        {
            "extensions" : {
                "KHR_lights_punctual" : {
                    "light" : 1
                }
            },
            "name" : "Point.001_Orientation",
            "rotation" : [
                -0.7071067690849304,
                0,
                0,
                0.7071067690849304
            ]
        },
        {
            "children" : [
                6
            ],
            "name" : "Point.001",
            "translation" : [
                10,
                20,
                -10
            ]
        },
        {
            "mesh" : 4,
            "name" : "Cube.002",
            "translation" : [
                0.552088737487793,
                -0.75,
                3.861095905303955
            ]
        },
        {
            "mesh" : 5,
            "name" : "portal_02_a",
            "translation" : [
                -4.866585731506348,
                11,
                5.323849201202393
            ]
        },
        {
            "mesh" : 6,
            "name" : "portal_02_b",
            "translation" : [
                -4.866585731506348,
                11,
                5.323849201202393
            ]
        },
        {
            "extensions" : {
                "KHR_lights_punctual" : {
                    "light" : 2
                }
            },
            "name" : "Point.002_Orientation",
            "rotation" : [
                -0.7071067690849304,
                0,
                0,
                0.7071067690849304
            ]
        },
        {
            "children" : [
                11
            ],
            "name" : "Point.002",
            "translation" : [
                -20,
                20,
                10
            ]
        },
        {
            "extensions" : {
                "KHR_lights_punctual" : {
                    "light" : 3
                }
            },
            "name" : "Point.003_Orientation",
            "rotation" : [
                -0.7071067690849304,
                0,
                0,
                0.7071067690849304
            ]
        },
        {
            "children" : [
                13
            ],
            "name" : "Point.003",
            "translation" : [
                -10,
                30,
                -7
            ]
        }
    ],
    "materials" : [
        {
            "doubleSided" : true,
            "emissiveFactor" : [
                0,
                0,
                0
            ],
            "name" : "Material",
            "pbrMetallicRoughness" : {
                "baseColorFactor" : [
                    0.800000011920929,
                    0.800000011920929,
                    0.800000011920929,
                    1
                ],
                "metallicFactor" : 0,
                "roughnessFactor" : 0.4000000059604645
            }
        },
        {
            "doubleSided" : true,
            "emissiveFactor" : [
                0,
                0,
                0
            ],
            "name" : "Material.001",
            "pbrMetallicRoughness" : {
                "baseColorFactor" : [
                    1,
                    0,
                    0,
                    1
                ],
                "metallicFactor" : 0,
                "roughnessFactor" : 0.5
            }
        }
    ],
    "meshes" : [
        {
            "name" : "Cube",
            "primitives" : [
                {
                    "attributes" : {
                        "POSITION" : 0,
                        "NORMAL" : 1,
                        "TEXCOORD_0" : 2
                    },
                    "indices" : 3,
                    "material" : 0
                }
            ]
        },
        {
            "name" : "Cube.001",
            "primitives" : [
                {
                    "attributes" : {
                        "POSITION" : 4,
                        "NORMAL" : 5,
                        "TEXCOORD_0" : 6
                    },
                    "indices" : 7
                }
            ]
        },
        {
            "name" : "portal_01_a",
            "primitives" : [
                {
                    "attributes" : {
                        "POSITION" : 8,
                        "NORMAL" : 9,
                        "TEXCOORD_0" : 10
                    },
                    "indices" : 11
                }
            ]
        },
        {
            "name" : "portal_01_b",
            "primitives" : [
                {
                    "attributes" : {
                        "POSITION" : 12,
                        "NORMAL" : 13,
                        "TEXCOORD_0" : 14
                    },
                    "indices" : 15
                }
            ]
        },
        {
            "name" : "Cube.002",
            "primitives" : [
                {
                    "attributes" : {
                        "POSITION" : 16,
                        "NORMAL" : 17,
                        "TEXCOORD_0" : 18
                    },
                    "indices" : 19,
                    "material" : 1
                }
            ]
        },
        {
            "name" : "portal_02_a",
            "primitives" : [
                {
                    "attributes" : {
                        "POSITION" : 20,
                        "NORMAL" : 21,
                        "TEXCOORD_0" : 22
                    },
                    "indices" : 11
                }
            ]
        },
        {
            "name" : "portal_02_b",
            "primitives" : [
                {
                    "attributes" : {
                        "POSITION" : 23,
                        "NORMAL" : 24,
                        "TEXCOORD_0" : 25
                    },
                    "indices" : 11
                }
            ]
        }
    ],
    "accessors" : [
        {
            "bufferView" : 0,
            "componentType" : 5126,
            "count" : 48,
            "max" : [
                1,
                1,
                1
            ],
            "min" : [
                -1,
                -1,
                -1
            ],
            "type" : "VEC3"
        },
        {
            "bufferView" : 1,
            "componentType" : 5126,
            "count" : 48,
            "type" : "VEC3"
        },
        {
            "bufferView" : 2,
            "componentType" : 5126,
            "count" : 48,
            "type" : "VEC2"
        },
        {
            "bufferView" : 3,
            "componentType" : 5123,
            "count" : 72,
            "type" : "SCALAR"
        },
        {
            "bufferView" : 4,
            "componentType" : 5126,
            "count" : 84,
            "max" : [
                1,
                1,
                1
            ],
            "min" : [
                -1,
                -1,
                -1
            ],
            "type" : "VEC3"
        },
        {
            "bufferView" : 5,
            "componentType" : 5126,
            "count" : 84,
            "type" : "VEC3"
        },
        {
            "bufferView" : 6,
            "componentType" : 5126,
            "count" : 84,
            "type" : "VEC2"
        },
        {
            "bufferView" : 7,
            "componentType" : 5123,
            "count" : 132,
            "type" : "SCALAR"
        },
        {
            "bufferView" : 8,
            "componentType" : 5126,
            "count" : 4,
            "max" : [
                1,
                1,
                -1
            ],
            "min" : [
                -1,
                -1,
                -1
            ],
            "type" : "VEC3"
        },
        {
            "bufferView" : 9,
            "componentType" : 5126,
            "count" : 4,
            "type" : "VEC3"
        },
        {
            "bufferView" : 10,
            "componentType" : 5126,
            "count" : 4,
            "type" : "VEC2"
        },
        {
            "bufferView" : 11,
            "componentType" : 5123,
            "count" : 6,
            "type" : "SCALAR"
        },
        {
            "bufferView" : 12,
            "componentType" : 5126,
            "count" : 4,
            "max" : [
                0.25,
                0.24999995529651642,
                -0.9999997019767761
            ],
            "min" : [
                -0.25,
                -0.24999995529651642,
                -0.9999997019767761
            ],
            "type" : "VEC3"
        },
        {
            "bufferView" : 13,
            "componentType" : 5126,
            "count" : 4,
            "type" : "VEC3"
        },
        {
            "bufferView" : 14,
            "componentType" : 5126,
            "count" : 4,
            "type" : "VEC2"
        },
        {
            "bufferView" : 15,
            "componentType" : 5123,
            "count" : 6,
            "type" : "SCALAR"
        },
        {
            "bufferView" : 16,
            "componentType" : 5126,
            "count" : 24,
            "max" : [
                1,
                1,
                1
            ],
            "min" : [
                -1,
                -1,
                -1
            ],
            "type" : "VEC3"
        },
        {
            "bufferView" : 17,
            "componentType" : 5126,
            "count" : 24,
            "type" : "VEC3"
        },
        {
            "bufferView" : 18,
            "componentType" : 5126,
            "count" : 24,
            "type" : "VEC2"
        },
        {
            "bufferView" : 19,
            "componentType" : 5123,
            "count" : 36,
            "type" : "SCALAR"
        },
        {
            "bufferView" : 20,
            "componentType" : 5126,
            "count" : 4,
            "max" : [
                -0.89999920129776,
                0.8999999761581421,
                0.8999999761581421
            ],
            "min" : [
                -0.8999993205070496,
                -0.8999999761581421,
                -0.8999999761581421
            ],
            "type" : "VEC3"
        },
        {
            "bufferView" : 21,
            "componentType" : 5126,
            "count" : 4,
            "type" : "VEC3"
        },
        {
            "bufferView" : 22,
            "componentType" : 5126,
            "count" : 4,
            "type" : "VEC2"
        },
        {
            "bufferView" : 23,
            "componentType" : 5126,
            "count" : 4,
            "max" : [
                0.900001049041748,
                0.8999999761581421,
                0.8999999761581421
            ],
            "min" : [
                0.900000810623169,
                -0.8999999761581421,
                -0.8999999761581421
            ],
            "type" : "VEC3"
        },
        {
            "bufferView" : 24,
            "componentType" : 5126,
            "count" : 4,
            "type" : "VEC3"
        },
        {
            "bufferView" : 25,
            "componentType" : 5126,
            "count" : 4,
            "type" : "VEC2"
        }
    ],
    "bufferViews" : [
        {
            "buffer" : 0,
            "byteLength" : 576,
            "byteOffset" : 0
        },
        {
            "buffer" : 0,
            "byteLength" : 576,
            "byteOffset" : 576
        },
        {
            "buffer" : 0,
            "byteLength" : 384,
            "byteOffset" : 1152
        },
        {
            "buffer" : 0,
            "byteLength" : 144,
            "byteOffset" : 1536
        },
        {
            "buffer" : 0,
            "byteLength" : 1008,
            "byteOffset" : 1680
        },
        {
            "buffer" : 0,
            "byteLength" : 1008,
            "byteOffset" : 2688
        },
        {
            "buffer" : 0,
            "byteLength" : 672,
            "byteOffset" : 3696
        },
        {
            "buffer" : 0,
            "byteLength" : 264,
            "byteOffset" : 4368
        },
        {
            "buffer" : 0,
            "byteLength" : 48,
            "byteOffset" : 4632
        },
        {
            "buffer" : 0,
            "byteLength" : 48,
            "byteOffset" : 4680
        },
        {
            "buffer" : 0,
            "byteLength" : 32,
            "byteOffset" : 4728
        },
        {
            "buffer" : 0,
            "byteLength" : 12,
            "byteOffset" : 4760
        },
        {
            "buffer" : 0,
            "byteLength" : 48,
            "byteOffset" : 4772
        },
        {
            "buffer" : 0,
            "byteLength" : 48,
            "byteOffset" : 4820
        },
        {
            "buffer" : 0,
            "byteLength" : 32,
            "byteOffset" : 4868
        },
        {
            "buffer" : 0,
            "byteLength" : 12,
            "byteOffset" : 4900
        },
        {
            "buffer" : 0,
            "byteLength" : 288,
            "byteOffset" : 4912
        },
        {
            "buffer" : 0,
            "byteLength" : 288,
            "byteOffset" : 5200
        },
        {
            "buffer" : 0,
            "byteLength" : 192,
            "byteOffset" : 5488
        },
        {
            "buffer" : 0,
            "byteLength" : 72,
            "byteOffset" : 5680
        },
        {
            "buffer" : 0,
            "byteLength" : 48,
            "byteOffset" : 5752
        },
        {
            "buffer" : 0,
            "byteLength" : 48,
            "byteOffset" : 5800
        },
        {
            "buffer" : 0,
            "byteLength" : 32,
            "byteOffset" : 5848
        },
        {
            "buffer" : 0,
            "byteLength" : 48,
            "byteOffset" : 5880
        },
        {
            "buffer" : 0,
            "byteLength" : 48,
            "byteOffset" : 5928
        },
        {
            "buffer" : 0,
            "byteLength" : 32,
            "byteOffset" : 5976
        }
    ],
    "buffers" : [
        {
            "byteLength" : 6008,
            "uri" : "scene.bin"
        }
    ]
}
